
DisplayName "Ancient Temple Ruins 2F"



EVENT   1
 PAGE   1
  250(bytes(0x04,0x08,0x6f,0x3a,0x0c,0x52,0x50,0x47,0x3a,0x3a,0x53,0x45,0x08,0x3a,0x0a,0x40,0x6e,0x61,0x6d,0x65,0x49,0x22,0x09,0x4d,0x6f,0x76,0x65,0x06,0x3a,0x06,0x45,0x54,0x3a,0x0b,0x40,0x70,0x69,0x74,0x63,0x68,0x69,0x69,0x3a,0x0c,0x40,0x76,0x6f,0x6c,0x75,0x6d,0x65,0x69,0x55))
  TeleportPlayer(0,110,5,11,0,0)
  0()



EVENT   10
 PAGE   1
  250(bytes(0x04,0x08,0x6f,0x3a,0x0c,0x52,0x50,0x47,0x3a,0x3a,0x53,0x45,0x08,0x3a,0x0a,0x40,0x6e,0x61,0x6d,0x65,0x49,0x22,0x09,0x4d,0x6f,0x76,0x65,0x06,0x3a,0x06,0x45,0x54,0x3a,0x0b,0x40,0x70,0x69,0x74,0x63,0x68,0x69,0x69,0x3a,0x0c,0x40,0x76,0x6f,0x6c,0x75,0x6d,0x65,0x69,0x55))
  TeleportPlayer(0,111,24,45,0,0)
  0()



EVENT   2
 PAGE   1
  250(bytes(0x04,0x08,0x6f,0x3a,0x0c,0x52,0x50,0x47,0x3a,0x3a,0x53,0x45,0x08,0x3a,0x0a,0x40,0x6e,0x61,0x6d,0x65,0x49,0x22,0x09,0x4d,0x6f,0x76,0x65,0x06,0x3a,0x06,0x45,0x54,0x3a,0x0b,0x40,0x70,0x69,0x74,0x63,0x68,0x69,0x69,0x3a,0x0c,0x40,0x76,0x6f,0x6c,0x75,0x6d,0x65,0x69,0x55))
  TeleportPlayer(0,110,5,11,0,0)
  0()



EVENT   3
 PAGE   1
  250(bytes(0x04,0x08,0x6f,0x3a,0x0c,0x52,0x50,0x47,0x3a,0x3a,0x53,0x45,0x08,0x3a,0x0a,0x40,0x6e,0x61,0x6d,0x65,0x49,0x22,0x09,0x4d,0x6f,0x76,0x65,0x06,0x3a,0x06,0x45,0x54,0x3a,0x0b,0x40,0x70,0x69,0x74,0x63,0x68,0x69,0x69,0x3a,0x0c,0x40,0x76,0x6f,0x6c,0x75,0x6d,0x65,0x69,0x55))
  TeleportPlayer(0,110,5,11,0,0)
  0()



EVENT   4
 PAGE   1
  250(bytes(0x04,0x08,0x6f,0x3a,0x0c,0x52,0x50,0x47,0x3a,0x3a,0x53,0x45,0x08,0x3a,0x0a,0x40,0x6e,0x61,0x6d,0x65,0x49,0x22,0x09,0x4d,0x6f,0x76,0x65,0x06,0x3a,0x06,0x45,0x54,0x3a,0x0b,0x40,0x70,0x69,0x74,0x63,0x68,0x69,0x69,0x3a,0x0c,0x40,0x76,0x6f,0x6c,0x75,0x6d,0x65,0x69,0x55))
  TeleportPlayer(0,110,23,9,0,0)
  0()



EVENT   5
 PAGE   1
  250(bytes(0x04,0x08,0x6f,0x3a,0x0c,0x52,0x50,0x47,0x3a,0x3a,0x53,0x45,0x08,0x3a,0x0a,0x40,0x6e,0x61,0x6d,0x65,0x49,0x22,0x09,0x4d,0x6f,0x76,0x65,0x06,0x3a,0x06,0x45,0x54,0x3a,0x0b,0x40,0x70,0x69,0x74,0x63,0x68,0x69,0x69,0x3a,0x0c,0x40,0x76,0x6f,0x6c,0x75,0x6d,0x65,0x69,0x55))
  TeleportPlayer(0,110,23,9,0,0)
  0()



EVENT   6
 PAGE   1
  250(bytes(0x04,0x08,0x6f,0x3a,0x0c,0x52,0x50,0x47,0x3a,0x3a,0x53,0x45,0x08,0x3a,0x0a,0x40,0x6e,0x61,0x6d,0x65,0x49,0x22,0x09,0x4d,0x6f,0x76,0x65,0x06,0x3a,0x06,0x45,0x54,0x3a,0x0b,0x40,0x70,0x69,0x74,0x63,0x68,0x69,0x69,0x3a,0x0c,0x40,0x76,0x6f,0x6c,0x75,0x6d,0x65,0x69,0x55))
  TeleportPlayer(0,110,23,9,0,0)
  0()



EVENT   7
 PAGE   1
  250(bytes(0x04,0x08,0x6f,0x3a,0x0c,0x52,0x50,0x47,0x3a,0x3a,0x53,0x45,0x08,0x3a,0x0a,0x40,0x6e,0x61,0x6d,0x65,0x49,0x22,0x09,0x4d,0x6f,0x76,0x65,0x06,0x3a,0x06,0x45,0x54,0x3a,0x0b,0x40,0x70,0x69,0x74,0x63,0x68,0x69,0x69,0x3a,0x0c,0x40,0x76,0x6f,0x6c,0x75,0x6d,0x65,0x69,0x55))
  TeleportPlayer(0,110,53,9,0,0)
  0()



EVENT   8
 PAGE   1
  250(bytes(0x04,0x08,0x6f,0x3a,0x0c,0x52,0x50,0x47,0x3a,0x3a,0x53,0x45,0x08,0x3a,0x0a,0x40,0x6e,0x61,0x6d,0x65,0x49,0x22,0x09,0x4d,0x6f,0x76,0x65,0x06,0x3a,0x06,0x45,0x54,0x3a,0x0b,0x40,0x70,0x69,0x74,0x63,0x68,0x69,0x69,0x3a,0x0c,0x40,0x76,0x6f,0x6c,0x75,0x6d,0x65,0x69,0x55))
  TeleportPlayer(0,110,53,9,0,0)
  0()



EVENT   9
 PAGE   1
  250(bytes(0x04,0x08,0x6f,0x3a,0x0c,0x52,0x50,0x47,0x3a,0x3a,0x53,0x45,0x08,0x3a,0x0a,0x40,0x6e,0x61,0x6d,0x65,0x49,0x22,0x09,0x4d,0x6f,0x76,0x65,0x06,0x3a,0x06,0x45,0x54,0x3a,0x0b,0x40,0x70,0x69,0x74,0x63,0x68,0x69,0x69,0x3a,0x0c,0x40,0x76,0x6f,0x6c,0x75,0x6d,0x65,0x69,0x55))
  TeleportPlayer(0,110,53,9,0,0)
  0()



EVENT   11
 PAGE   1
  250(bytes(0x04,0x08,0x6f,0x3a,0x0c,0x52,0x50,0x47,0x3a,0x3a,0x53,0x45,0x08,0x3a,0x0a,0x40,0x6e,0x61,0x6d,0x65,0x49,0x22,0x09,0x4d,0x6f,0x76,0x65,0x06,0x3a,0x06,0x45,0x54,0x3a,0x0b,0x40,0x70,0x69,0x74,0x63,0x68,0x69,0x69,0x3a,0x0c,0x40,0x76,0x6f,0x6c,0x75,0x6d,0x65,0x69,0x55))
  TeleportPlayer(0,111,24,45,0,0)
  0()



EVENT   12
 PAGE   1
  250(bytes(0x04,0x08,0x6f,0x3a,0x0c,0x52,0x50,0x47,0x3a,0x3a,0x53,0x45,0x08,0x3a,0x0a,0x40,0x6e,0x61,0x6d,0x65,0x49,0x22,0x09,0x4d,0x6f,0x76,0x65,0x06,0x3a,0x06,0x45,0x54,0x3a,0x0b,0x40,0x70,0x69,0x74,0x63,0x68,0x69,0x69,0x3a,0x0c,0x40,0x76,0x6f,0x6c,0x75,0x6d,0x65,0x69,0x55))
  TeleportPlayer(0,111,24,45,0,0)
  0()



EVENT   13
 PAGE   1
  250(bytes(0x04,0x08,0x6f,0x3a,0x0c,0x52,0x50,0x47,0x3a,0x3a,0x53,0x45,0x08,0x3a,0x0a,0x40,0x6e,0x61,0x6d,0x65,0x49,0x22,0x09,0x4d,0x6f,0x76,0x65,0x06,0x3a,0x06,0x45,0x54,0x3a,0x0b,0x40,0x70,0x69,0x74,0x63,0x68,0x69,0x69,0x3a,0x0c,0x40,0x76,0x6f,0x6c,0x75,0x6d,0x65,0x69,0x55))
  TeleportPlayer(0,111,24,45,0,0)
  0()



EVENT   14
 PAGE   1
  250(bytes(0x04,0x08,0x6f,0x3a,0x0c,0x52,0x50,0x47,0x3a,0x3a,0x53,0x45,0x08,0x3a,0x0a,0x40,0x6e,0x61,0x6d,0x65,0x49,0x22,0x09,0x4d,0x6f,0x76,0x65,0x06,0x3a,0x06,0x45,0x54,0x3a,0x0b,0x40,0x70,0x69,0x74,0x63,0x68,0x69,0x69,0x3a,0x0c,0x40,0x76,0x6f,0x6c,0x75,0x6d,0x65,0x69,0x55))
  TeleportPlayer(0,111,24,45,0,0)
  0()



EVENT   15
 PAGE   1
  250(bytes(0x04,0x08,0x6f,0x3a,0x0c,0x52,0x50,0x47,0x3a,0x3a,0x53,0x45,0x08,0x3a,0x0a,0x40,0x6e,0x61,0x6d,0x65,0x49,0x22,0x0a,0x43,0x68,0x65,0x73,0x74,0x06,0x3a,0x06,0x45,0x54,0x3a,0x0b,0x40,0x70,0x69,0x74,0x63,0x68,0x69,0x69,0x3a,0x0c,0x40,0x76,0x6f,0x6c,0x75,0x6d,0x65,0x69,0x55))
  205(0,bytes(0x04,0x08,0x6f,0x3a,0x13,0x52,0x50,0x47,0x3a,0x3a,0x4d,0x6f,0x76,0x65,0x52,0x6f,0x75,0x74,0x65,0x09,0x3a,0x0c,0x40,0x72,0x65,0x70,0x65,0x61,0x74,0x46,0x3a,0x0f,0x40,0x73,0x6b,0x69,0x70,0x70,0x61,0x62,0x6c,0x65,0x46,0x3a,0x0a,0x40,0x77,0x61,0x69,0x74,0x54,0x3a,0x0a,0x40,0x6c,0x69,0x73,0x74,0x5b,0x0b,0x6f,0x3a,0x15,0x52,0x50,0x47,0x3a,0x3a,0x4d,0x6f,0x76,0x65,0x43,0x6f,0x6d,0x6d,0x61,0x6e,0x64,0x07,0x3a,0x0a,0x40,0x63,0x6f,0x64,0x65,0x69,0x29,0x3a,0x10,0x40,0x70,0x61,0x72,0x61,0x6d,0x65,0x74,0x65,0x72,0x73,0x5b,0x00,0x6f,0x3b,0x0a,0x07,0x3b,0x0b,0x69,0x16,0x3b,0x0c,0x5b,0x00,0x6f,0x3b,0x0a,0x07,0x3b,0x0b,0x69,0x14,0x3b,0x0c,0x5b,0x06,0x69,0x08,0x6f,0x3b,0x0a,0x07,0x3b,0x0b,0x69,0x17,0x3b,0x0c,0x5b,0x00,0x6f,0x3b,0x0a,0x07,0x3b,0x0b,0x69,0x14,0x3b,0x0c,0x5b,0x06,0x69,0x08,0x6f,0x3b,0x0a,0x07,0x3b,0x0b,0x69,0x00,0x3b,0x0c,0x5b,0x00))
  ChangeSelfSwitch("A",0)
  ChangeInventoryWeapon(894,0,0,1)
  0()
 PAGE   2
  // condition: self-switch A is ON
  0()



EVENT   16
 PAGE   1
  250(bytes(0x04,0x08,0x6f,0x3a,0x0c,0x52,0x50,0x47,0x3a,0x3a,0x53,0x45,0x08,0x3a,0x0a,0x40,0x6e,0x61,0x6d,0x65,0x49,0x22,0x0a,0x43,0x68,0x65,0x73,0x74,0x06,0x3a,0x06,0x45,0x54,0x3a,0x0b,0x40,0x70,0x69,0x74,0x63,0x68,0x69,0x69,0x3a,0x0c,0x40,0x76,0x6f,0x6c,0x75,0x6d,0x65,0x69,0x55))
  205(0,bytes(0x04,0x08,0x6f,0x3a,0x13,0x52,0x50,0x47,0x3a,0x3a,0x4d,0x6f,0x76,0x65,0x52,0x6f,0x75,0x74,0x65,0x09,0x3a,0x0c,0x40,0x72,0x65,0x70,0x65,0x61,0x74,0x46,0x3a,0x0f,0x40,0x73,0x6b,0x69,0x70,0x70,0x61,0x62,0x6c,0x65,0x46,0x3a,0x0a,0x40,0x77,0x61,0x69,0x74,0x54,0x3a,0x0a,0x40,0x6c,0x69,0x73,0x74,0x5b,0x0b,0x6f,0x3a,0x15,0x52,0x50,0x47,0x3a,0x3a,0x4d,0x6f,0x76,0x65,0x43,0x6f,0x6d,0x6d,0x61,0x6e,0x64,0x07,0x3a,0x0a,0x40,0x63,0x6f,0x64,0x65,0x69,0x29,0x3a,0x10,0x40,0x70,0x61,0x72,0x61,0x6d,0x65,0x74,0x65,0x72,0x73,0x5b,0x00,0x6f,0x3b,0x0a,0x07,0x3b,0x0b,0x69,0x16,0x3b,0x0c,0x5b,0x00,0x6f,0x3b,0x0a,0x07,0x3b,0x0b,0x69,0x14,0x3b,0x0c,0x5b,0x06,0x69,0x08,0x6f,0x3b,0x0a,0x07,0x3b,0x0b,0x69,0x17,0x3b,0x0c,0x5b,0x00,0x6f,0x3b,0x0a,0x07,0x3b,0x0b,0x69,0x14,0x3b,0x0c,0x5b,0x06,0x69,0x08,0x6f,0x3b,0x0a,0x07,0x3b,0x0b,0x69,0x00,0x3b,0x0c,0x5b,0x00))
  ChangeSelfSwitch("A",0)
  ChangeInventoryArmor(204,0,0,1)
  0()
 PAGE   2
  // condition: self-switch A is ON
  0()



EVENT   17
 PAGE   1
  250(bytes(0x04,0x08,0x6f,0x3a,0x0c,0x52,0x50,0x47,0x3a,0x3a,0x53,0x45,0x08,0x3a,0x0a,0x40,0x6e,0x61,0x6d,0x65,0x49,0x22,0x0a,0x43,0x68,0x65,0x73,0x74,0x06,0x3a,0x06,0x45,0x54,0x3a,0x0b,0x40,0x70,0x69,0x74,0x63,0x68,0x69,0x69,0x3a,0x0c,0x40,0x76,0x6f,0x6c,0x75,0x6d,0x65,0x69,0x55))
  205(0,bytes(0x04,0x08,0x6f,0x3a,0x13,0x52,0x50,0x47,0x3a,0x3a,0x4d,0x6f,0x76,0x65,0x52,0x6f,0x75,0x74,0x65,0x09,0x3a,0x0c,0x40,0x72,0x65,0x70,0x65,0x61,0x74,0x46,0x3a,0x0f,0x40,0x73,0x6b,0x69,0x70,0x70,0x61,0x62,0x6c,0x65,0x46,0x3a,0x0a,0x40,0x77,0x61,0x69,0x74,0x54,0x3a,0x0a,0x40,0x6c,0x69,0x73,0x74,0x5b,0x0b,0x6f,0x3a,0x15,0x52,0x50,0x47,0x3a,0x3a,0x4d,0x6f,0x76,0x65,0x43,0x6f,0x6d,0x6d,0x61,0x6e,0x64,0x07,0x3a,0x0a,0x40,0x63,0x6f,0x64,0x65,0x69,0x29,0x3a,0x10,0x40,0x70,0x61,0x72,0x61,0x6d,0x65,0x74,0x65,0x72,0x73,0x5b,0x00,0x6f,0x3b,0x0a,0x07,0x3b,0x0b,0x69,0x16,0x3b,0x0c,0x5b,0x00,0x6f,0x3b,0x0a,0x07,0x3b,0x0b,0x69,0x14,0x3b,0x0c,0x5b,0x06,0x69,0x08,0x6f,0x3b,0x0a,0x07,0x3b,0x0b,0x69,0x17,0x3b,0x0c,0x5b,0x00,0x6f,0x3b,0x0a,0x07,0x3b,0x0b,0x69,0x14,0x3b,0x0c,0x5b,0x06,0x69,0x08,0x6f,0x3b,0x0a,0x07,0x3b,0x0b,0x69,0x00,0x3b,0x0c,0x5b,0x00))
  ChangeSelfSwitch("A",0)
  ChangeInventoryWeapon(519,0,0,1)
  0()
 PAGE   2
  // condition: self-switch A is ON
  0()



EVENT   18
 PAGE   1
  ChangeSelfSwitch("A",0)
  ShowMessageFace("saniria_fc1",0,0,2,1)
  ShowMessage("\\n<King of San Ilia>Within the church, only a select group of upper hierarchs know of this place. Outside the church, only a small handful of trusted professionals know of it.")
  If(0,4,0)
   ShowMessageFace("alice_fc5",2,0,2,2)
   ShowMessage("\\n<Alice>Then why did you reveal it to us? As far as the church's bigwigs are concerned, we're practically unknown.")
   0()
  EndIf()
  If(0,5,0)
   ShowMessageFace("iriasu_fc4",2,0,2,3)
   ShowMessage("\\n<Ilias>Then why did you disclose this to us? Can it be that you've perceived my true identity?")
   0()
  EndIf()
  ShowMessageFace("saniria_fc1",0,0,2,4)
  ShowMessage("\\n<King of San Ilia>We didn't choose you by chance, of course. It's clear that you aren't from the anti-machina faction, and you have received the Goddess's divine blessing.")
  ShowMessageFace("saniria_fc1",0,0,2,5)
  ShowMessage("\\n<King of San Ilia>Above all, though, the main reason for our trust is that you have entered and left Tartarus. That bizarre place is also full of information and artifacts.")
  If(0,6,0)
   ShowMessageFace("sonia_fc3",7,0,2,6)
   ShowMessage("\\n<Sonya>How do you know about that? No way, do you even know about what happened on the other side?")
   0()
  Else()
   ShowMessageFace("ruka_fc1",0,0,2,7)
   ShowMessage("\\n<Luka>Why do you know that? Wait, do you even know what happened on the other side?")
   0()
  EndIf()
  If(4,72,0)
   ShowMessageFace("phoenix_fc1",2,0,2,8)
   ShowMessage("\\n<Mini>Pooope, do you know about that world, too?!")
   ShowMessageFace("saniria_fc1",3,0,2,9)
   ShowMessage("\\n<King of San Ilia>That world? What do you...")
   0()
  EndIf()
  ShowMessageFace("saniria_fc1",0,0,2,10)
  ShowMessage("\\n<King of San Ilia>We grasped your intentions, but we were unable to ascertain what were you did in the depths of Tartarus.")
  ShowMessageFace("saniria_fc1",0,0,2,11)
  ShowMessage("\\n<King of San Ilia>We have revealed many of our secrets, so we would like you to tell us of your situation as well, but...")
  ShowMessageFace("saniria_fc1",0,0,2,12)
  ShowMessage("\\n<King of San Ilia>...For now, let's just keep moving.")
  If(4,41,0)
   ShowMessageFace("stein_fc2",1,0,2,13)
   ShowMessage("\\n<Promestein>Look at this! This is the first time I've seen such small, integrated circuits!")
   If(0,6,0)
    ShowMessageFace("sonia_fc2",2,0,2,14)
    ShowMessage("\\n<Sonya>And this one's off in her own world...")
    0()
   Else()
    ShowMessageFace("ruka_fc1",0,0,2,15)
    ShowMessage("\\n<Luka>And she's still doing things at her own pace...")
    0()
   EndIf()
   0()
  EndIf()
  0()
 PAGE   2
  // condition: self-switch A is ON
  0()



EVENT   19
 PAGE   1
  // condition: variable 1022 >= 6
  // condition: party contains actor #41
  RunCommonEvent(317)
  ShowMessageFace("stein_fc2",0,0,2,1)
  ShowMessage("\\n<Promestein>This is some kind of transfer device. The set data hasn't been erased...")
  ShowMessageFace("stein_fc2",2,0,2,2)
  ShowMessage("\\n<Promestein>F9623... I wonder what that is... Y1063, is this the year? X369.165, Y025.533 is... No way, this is...?!")
  If(0,6,0)
   ShowMessageFace("sonia_fc2",2,0,2,3)
   ShowMessage("\\n<Sonya>What happened? Got any clues about the numbers?")
   0()
  Else()
   ShowMessageFace("ruka_fc1",0,0,2,4)
   ShowMessage("\\n<Luka>Did you figure out something about the numbers?")
   0()
  EndIf()
  ShowMessageFace("stein_fc2",2,0,2,5)
  ShowMessage("\\n<Promestein>These are standard coordinates... to the time and location of when I was drawn into Tartarus! The day I did the experiment!")
  ShowMessageFace("stein_fc2",2,0,2,6)
  ShowMessage("\\n<Promestein>Y1063 is Johannes Year 1063... The date matches... No way!")
  If(0,4,0)
   ShowMessageFace("alice_fc6",0,0,2,7)
   ShowMessage("\\n<Alice>Promestein, you said you were pulled into Tartarus because of that experiment, right?")
   0()
  EndIf()
  If(0,5,0)
   ShowMessageFace("iriasu_fc4",7,0,2,8)
   ShowMessage("\\n<Ilias>Promestein, you said you were dragged into Tartarus while performing a holy-dark energy fusion experiment, didn't you?")
   0()
  EndIf()
  ShowMessageFace("stein_fc2",2,0,2,9)
  ShowMessage("\\n<Promestein>Yes... Back then, I thought the experiment was the cause. That I accidentally made a small dimensional crack.")
  ShowMessageFace("stein_fc2",2,0,2,10)
  ShowMessage("\\n<Promestein>But I was wrong. This device is what drew me into foreign space...")
  ShowMessageFace("ruka_fc1",0,0,2,11)
  ShowMessage("\\n<Luka>What does that mean?! Did the lab's administrators know about you?!")
  ShowMessageFace("stein_fc2",2,0,2,12)
  ShowMessage("\\n<Promestein>......")
  ShowMessageFace("stein_fc2",0,0,2,13)
  ShowMessage("\\n<Promestein>It would seem... that the subject of my experiment back then was also no coincidence.")
  ShowMessageFace("stein_fc2",0,0,2,14)
  ShowMessage("\\n<Promestein>From this data, we can be certain that transferring to parallel worlds is deeply connected to holy-dark energy fusion.")
  ShowMessageFace("stein_fc2",0,0,2,15)
  ShowMessage("\\n<Promestein>Meaning that the time I preformed that experiment... was also the perfect time to draw me into Tartarus.")
  If(0,4,0)
   ShowMessageFace("alice_fc6",0,0,2,16)
   ShowMessage("\\n<Alice>But why would they do that? Why would the master of this laboratory scoop you out your world?")
   0()
  EndIf()
  If(0,5,0)
   ShowMessageFace("iriasu_fc4",7,0,2,17)
   ShowMessage("\\n<Ilias>But for what purpose? Why would the master of this place send Promestein into another world?")
   0()
  EndIf()
  If(0,6,0)
   ShowMessageFace("sonia_fc2",2,0,2,18)
   ShowMessage("\\n<Sonya>Maybe the people from this laboratory had a grudge against her. Did she get in their way or something?")
   0()
  Else()
   ShowMessageFace("ruka_fc1",0,0,2,19)
   ShowMessage("\\n<Luka>Maybe the researchers had something against her... No, wait, that can't be it...")
   0()
  EndIf()
  ShowMessageFace("stein_fc2",0,0,2,20)
  ShowMessage("\\n<Promestein>I currently have no idea. I don't know what I would have done in the future.")
  ShowMessageFace("stein_fc2",0,0,2,21)
  ShowMessage("\\n<Promestein>If I got, or will get, in their way, they could have just killed me back then. There was no need to bother with throwing me into another world.")
  ShowMessageFace("stein_fc2",0,0,2,22)
  ShowMessage("\\n<Promestein>Rather, perhaps they wanted me to meet someone who was visiting that world... To join the travels of certain someones who would enter that bizarre place...")
  If(0,4,0)
   ShowMessageFace("alice_fc6",0,0,2,23)
   ShowMessage("\\n<Alice>...It was for Luka!")
   0()
  EndIf()
  If(0,5,0)
   ShowMessageFace("iriasu_fc4",7,0,2,24)
   ShowMessage("\\n<Ilias>Impossible! They meant for you to meet Luka?!")
   0()
  EndIf()
  ShowMessageFace("stein_fc2",0,0,2,25)
  ShowMessage("\\n<Promestein>I have no evidence. In the end, that's just a hypothesis based on some fragmentary surviving data.")
  ShowMessageFace("stein_fc2",0,0,2,26)
  ShowMessage("\\n<Promestein>Still, the incident during my experiment seems to have been no coincidence. It appears that someone may have been involved with what happened to me back then.")
  ShowMessageFace("stein_fc2",0,0,2,27)
  ShowMessage("\\n<Promestein>(However, to know the time and location of my experiment... If they grasped the timing that accurately, then...)")
  RunCommonEvent(318)
  ChangeSelfSwitch(binary"A",0)
  0()
 PAGE   2
  // condition: self-switch A is ON
  0()