﻿


EVENT   1
 PAGE   1
  0()



EVENT   3
 PAGE   1
  0()



EVENT   2
 PAGE   1
  0()



EVENT   4
 PAGE   1
  211(0)
  314(0,0)
  223(bytes(0x04,0x08,0x75,0x3a,0x09,0x54,0x6f,0x6e,0x65,0x25,0x00,0x00,0x00,0x00,0x00,0x00,0x00,0x00,0x00,0x00,0x00,0x00,0x00,0x00,0x00,0x00,0x00,0x00,0x00,0x00,0x00,0x00,0x00,0x00,0x00,0x00,0x00,0x00,0x00,0xe0,0x6f,0x40),1,false)
  222()
  250(bytes(0x04,0x08,0x6f,0x3a,0x0c,0x52,0x50,0x47,0x3a,0x3a,0x53,0x45,0x08,0x3a,0x0a,0x40,0x6e,0x61,0x6d,0x65,0x49,0x22,0x0e,0x6d,0x6f,0x6e,0x5f,0x6b,0x6f,0x64,0x6f,0x75,0x06,0x3a,0x06,0x45,0x54,0x3a,0x0b,0x40,0x70,0x69,0x74,0x63,0x68,0x69,0x69,0x3a,0x0c,0x40,0x76,0x6f,0x6c,0x75,0x6d,0x65,0x69,0x69))
  Wait(60)
  ShowMessageFace("micaela_fc1",0,0,2,1)
  ShowMessage("\\n<Micaela>A few billion years after this planet was born...")
  ShowMessageFace("micaela_fc1",0,0,2,2)
  ShowMessage("\\n<Micaela>The holy energy and the dark energy circulating through this world had each concentrated in one point.")
  ShowMessageFace("micaela_fc1",0,0,2,3)
  ShowMessage("\\n<Micaela>So to say, the light and the darkness separated from the chaotic atmosphere... and each of them has acquired supernatural will.")
  ShowMessageFace("micaela_fc1",0,0,2,4)
  ShowMessage("\\n<Micaela>Goddess Ilias was born from the light... and Dark Goddess Alipheese was born from the darkness.")
  250(bytes(0x04,0x08,0x6f,0x3a,0x0c,0x52,0x50,0x47,0x3a,0x3a,0x53,0x45,0x08,0x3a,0x0a,0x40,0x6e,0x61,0x6d,0x65,0x49,0x22,0x0e,0x6d,0x6f,0x6e,0x5f,0x6b,0x6f,0x64,0x6f,0x75,0x06,0x3a,0x06,0x45,0x54,0x3a,0x0b,0x40,0x70,0x69,0x74,0x63,0x68,0x69,0x69,0x3a,0x0c,0x40,0x76,0x6f,0x6c,0x75,0x6d,0x65,0x69,0x69))
  Wait(60)
  ShowMessageFace("micaela_fc1",0,0,2,5)
  ShowMessage("\\n<Micaela>The self-awareness born from the holy light... in other words, Goddess Ilias, has first started to shape her alter-egos.")
  ShowMessageFace("micaela_fc1",0,0,2,6)
  ShowMessage("\\n<Micaela>The alter-egos made to resemble the Goddess' appearance have been created in form of twin angels.")
  ShowMessageFace("ruka_fc1",0,0,2,7)
  ShowMessage("\\n<Luka>The original twin angels... and, the elder sister was Michaela...")
  250(bytes(0x04,0x08,0x6f,0x3a,0x0c,0x52,0x50,0x47,0x3a,0x3a,0x53,0x45,0x08,0x3a,0x0a,0x40,0x6e,0x61,0x6d,0x65,0x49,0x22,0x0e,0x6d,0x6f,0x6e,0x5f,0x6b,0x6f,0x64,0x6f,0x75,0x06,0x3a,0x06,0x45,0x54,0x3a,0x0b,0x40,0x70,0x69,0x74,0x63,0x68,0x69,0x69,0x3a,0x0c,0x40,0x76,0x6f,0x6c,0x75,0x6d,0x65,0x69,0x69))
  Wait(60)
  ShowMessageFace("micaela_fc1",0,0,2,8)
  ShowMessage("\\n<Micaela>The scheming of Goddess Ilias had gone too far and a rebel who stood against her has appeared.")
  ShowMessageFace("micaela_fc1",0,0,2,9)
  ShowMessage("\\n<Micaela>That was my little sister... the original angel born as Ilias' alter-ego.")
  250(bytes(0x04,0x08,0x6f,0x3a,0x0c,0x52,0x50,0x47,0x3a,0x3a,0x53,0x45,0x08,0x3a,0x0a,0x40,0x6e,0x61,0x6d,0x65,0x49,0x22,0x0e,0x6d,0x6f,0x6e,0x5f,0x6b,0x6f,0x64,0x6f,0x75,0x06,0x3a,0x06,0x45,0x54,0x3a,0x0b,0x40,0x70,0x69,0x74,0x63,0x68,0x69,0x69,0x3a,0x0c,0x40,0x76,0x6f,0x6c,0x75,0x6d,0x65,0x69,0x69))
  Wait(60)
  ShowMessageFace("micaela_fc1",0,0,2,10)
  ShowMessage("\\n<Micaela>The battle with my little sister was extremely fierce...")
  ShowMessageFace("micaela_fc1",0,0,2,11)
  ShowMessage("\\n<Micaela>Despite being seriously injured, my little sister escaped to earth and has become a fallen angel.")
  250(bytes(0x04,0x08,0x6f,0x3a,0x0c,0x52,0x50,0x47,0x3a,0x3a,0x53,0x45,0x08,0x3a,0x0a,0x40,0x6e,0x61,0x6d,0x65,0x49,0x22,0x0e,0x6d,0x6f,0x6e,0x5f,0x6b,0x6f,0x64,0x6f,0x75,0x06,0x3a,0x06,0x45,0x54,0x3a,0x0b,0x40,0x70,0x69,0x74,0x63,0x68,0x69,0x69,0x3a,0x0c,0x40,0x76,0x6f,0x6c,0x75,0x6d,0x65,0x69,0x69))
  Wait(60)
  ShowMessageFace("micaela_fc1",0,0,2,12)
  ShowMessage("\\n<Micaela>When I descended on earth I heard my little sister's whereabouts are unknown. It seemed that she has been wandering for several hundred years after she fell.")
  ShowMessageFace("micaela_fc1",0,0,2,13)
  ShowMessage("\\n<Micaela>And only very recently, she met a hero who was at the bottom of despair. My little sister fell in love with the hero and decided to live as a human...")
  ShowMessageFace("micaela_fc1",0,0,2,14)
  ShowMessage("\\n<Micaela>Then until last moment, she lived fulfilling life as a human.")
  ShowMessageFace("micaela_fc1",0,0,2,15)
  ShowMessage("\\n<Micaela>My little sister's name was...")
  Wait(30)
  250(bytes(0x04,0x08,0x6f,0x3a,0x0c,0x52,0x50,0x47,0x3a,0x3a,0x53,0x45,0x08,0x3a,0x0a,0x40,0x6e,0x61,0x6d,0x65,0x49,0x22,0x0e,0x6d,0x6f,0x6e,0x5f,0x6b,0x6f,0x64,0x6f,0x75,0x06,0x3a,0x06,0x45,0x54,0x3a,0x0b,0x40,0x70,0x69,0x74,0x63,0x68,0x69,0x69,0x3a,0x0c,0x40,0x76,0x6f,0x6c,0x75,0x6d,0x65,0x69,0x69))
  Wait(60)
  242(1)
  221()
  Wait(30)
  ShowMessageFace("ruka_fc1",0,0,2,16)
  ShowMessage("\\n<Luka>Lucifina\\!It was my mother, wasn't it.")
  Wait(30)
  250(bytes(0x04,0x08,0x6f,0x3a,0x0c,0x52,0x50,0x47,0x3a,0x3a,0x53,0x45,0x08,0x3a,0x0a,0x40,0x6e,0x61,0x6d,0x65,0x49,0x22,0x0e,0x6d,0x6f,0x6e,0x5f,0x6b,0x6f,0x64,0x6f,0x75,0x06,0x3a,0x06,0x45,0x54,0x3a,0x0b,0x40,0x70,0x69,0x74,0x63,0x68,0x69,0x69,0x3a,0x0c,0x40,0x76,0x6f,0x6c,0x75,0x6d,0x65,0x69,0x69))
  Wait(120)
  241(bytes(0x04,0x08,0x6f,0x3a,0x0d,0x52,0x50,0x47,0x3a,0x3a,0x42,0x47,0x4d,0x08,0x3a,0x0a,0x40,0x6e,0x61,0x6d,0x65,0x49,0x22,0x14,0x73,0x63,0x65,0x6e,0x65,0x5f,0x6b,0x61,0x6e,0x61,0x73,0x69,0x6d,0x69,0x34,0x06,0x3a,0x06,0x45,0x54,0x3a,0x0c,0x40,0x76,0x6f,0x6c,0x75,0x6d,0x65,0x69,0x69,0x3a,0x0b,0x40,0x70,0x69,0x74,0x63,0x68,0x69,0x69))
  223(bytes(0x04,0x08,0x75,0x3a,0x09,0x54,0x6f,0x6e,0x65,0x25,0x00,0x00,0x00,0x00,0x00,0x00,0x00,0x00,0x00,0x00,0x00,0x00,0x00,0x00,0x00,0x00,0x00,0x00,0x00,0x00,0x00,0x00,0x00,0x00,0x00,0x00,0x00,0x00,0x00,0x00,0x00,0x00),1,false)
  TeleportPlayer(0,628,1,0,0,2)
  0()
